sed -n "${cur}p" < run_jobs.txt  0.00s user 0.00s system 83% cpu 0.002 total
Picked up JAVA_TOOL_OPTIONS: -Xmx2048m
Options: CommandLineOptions{path='/work/tl416220/rers2020-bin/Problem13', maxDepth=2, expectedLength=8, alphabetSize=10, testingBound=2000000, outputPath='/work/tl416220/rers2020-output/Problem13', help=false}
LOG> start: 2020-08-14T09:24:33.146, alphabet = 10
1: 2020-08-14T09:24:33.507 duration so far: PT0.361S
States: 1
2: 2020-08-14T09:24:33.672 duration so far: PT0.526S
States: 4
3: 2020-08-14T09:24:33.726 duration so far: PT0.58S
States: 5
4: 2020-08-14T09:24:33.982 duration so far: PT0.836S
States: 10
5: 2020-08-14T09:24:34.213 duration so far: PT1.067S
States: 14
6: 2020-08-14T09:24:34.600 duration so far: PT1.454S
States: 21
7: 2020-08-14T09:24:34.686 duration so far: PT1.54S
States: 22
8: 2020-08-14T09:24:34.779 duration so far: PT1.633S
States: 23
9: 2020-08-14T09:24:35.141 duration so far: PT1.995S
States: 28
10: 2020-08-14T09:24:35.242 duration so far: PT2.096S
States: 29
11: 2020-08-14T09:24:35.393 duration so far: PT2.247S
States: 30
12: 2020-08-14T09:24:35.500 duration so far: PT2.354S
States: 31
13: 2020-08-14T09:24:36.666 duration so far: PT3.52S
States: 33
14: 2020-08-14T09:24:36.777 duration so far: PT3.631S
States: 34
15: 2020-08-14T09:24:37.654 duration so far: PT4.508S
States: 35
16: 2020-08-14T09:24:38.084 duration so far: PT4.938S
States: 37
17: 2020-08-14T09:24:38.379 duration so far: PT5.233S
States: 38
18: 2020-08-14T09:24:38.578 duration so far: PT5.432S
States: 39
19: 2020-08-14T09:24:40.601 duration so far: PT7.455S
States: 40
20: 2020-08-14T09:24:41.135 duration so far: PT7.989S
States: 42
21: 2020-08-14T09:24:42.249 duration so far: PT9.103S
States: 43
22: 2020-08-14T09:24:44.334 duration so far: PT11.188S
States: 44
23: 2020-08-14T09:24:45.491 duration so far: PT12.345S
States: 45
24: 2020-08-14T09:24:51.119 duration so far: PT17.973S
States: 52
25: 2020-08-14T09:24:51.371 duration so far: PT18.225S
States: 53
26: 2020-08-14T09:24:51.928 duration so far: PT18.782S
States: 54
27: 2020-08-14T09:24:57.844 duration so far: PT24.698S
States: 55
28: 2020-08-14T09:25:02.698 duration so far: PT29.552S
States: 61
29: 2020-08-14T09:25:03.009 duration so far: PT29.863S
States: 62
30: 2020-08-14T09:25:03.763 duration so far: PT30.617S
States: 63
31: 2020-08-14T09:25:04.076 duration so far: PT30.93S
States: 64
32: 2020-08-14T09:25:04.802 duration so far: PT31.656S
States: 66
33: 2020-08-14T09:25:05.272 duration so far: PT32.126S
States: 68
34: 2020-08-14T09:25:05.436 duration so far: PT32.29S
States: 69
35: 2020-08-14T09:25:06.690 duration so far: PT33.544S
States: 71
36: 2020-08-14T09:25:07.550 duration so far: PT34.404S
States: 72
37: 2020-08-14T09:25:07.932 duration so far: PT34.786S
States: 73
38: 2020-08-14T09:25:08.614 duration so far: PT35.468S
States: 74
39: 2020-08-14T09:25:08.980 duration so far: PT35.834S
States: 75
40: 2020-08-14T09:25:09.507 duration so far: PT36.361S
States: 76
41: 2020-08-14T09:25:13.589 duration so far: PT40.443S
States: 77
Done with learning /work/tl416220/rers2020-bin/Problem13
