sed -n "${cur}p" < run_jobs.txt  0.00s user 0.00s system 81% cpu 0.002 total
Picked up JAVA_TOOL_OPTIONS: -Xmx2048m
Options: CommandLineOptions{path='/work/tl416220/rers2020-bin/Problem2', maxDepth=2, expectedLength=8, alphabetSize=10, outputPath='/work/tl416220/rers2020-output/Problem2', help=false}
LOG> start: 2020-08-12T16:04:23.585, alphabet = 10
1: 2020-08-12T16:04:23.986 duration so far: PT0.401S
States: 1
2: 2020-08-12T16:04:24.281 duration so far: PT0.696S
States: 2
3: 2020-08-12T16:04:26.421 duration so far: PT2.836S
States: 7
4: 2020-08-12T16:04:28.897 duration so far: PT5.312S
States: 10
5: 2020-08-12T16:04:35.272 duration so far: PT11.687S
States: 14
6: 2020-08-12T16:04:36.869 duration so far: PT13.284S
States: 15
7: 2020-08-12T16:04:38.153 duration so far: PT14.568S
States: 17
8: 2020-08-12T16:04:39.848 duration so far: PT16.263S
States: 18
9: 2020-08-12T16:04:41.940 duration so far: PT18.355S
States: 19
10: 2020-08-12T16:04:43.954 duration so far: PT20.369S
States: 21
11: 2020-08-12T16:04:45.710 duration so far: PT22.125S
States: 22
12: 2020-08-12T16:04:47.298 duration so far: PT23.713S
States: 23
13: 2020-08-12T16:04:49.274 duration so far: PT25.689S
States: 24
14: 2020-08-12T16:04:53.795 duration so far: PT30.21S
States: 27
15: 2020-08-12T16:04:56.559 duration so far: PT32.974S
States: 28
16: 2020-08-12T16:04:58.292 duration so far: PT34.707S
States: 29
17: 2020-08-12T16:05:01.484 duration so far: PT37.899S
States: 30
18: 2020-08-12T16:05:04.554 duration so far: PT40.969S
States: 32
19: 2020-08-12T16:05:07.119 duration so far: PT43.534S
States: 33
20: 2020-08-12T16:05:09.666 duration so far: PT46.081S
States: 34
21: 2020-08-12T16:05:15.968 duration so far: PT52.383S
States: 37
22: 2020-08-12T16:05:21.464 duration so far: PT57.879S
States: 41
23: 2020-08-12T16:05:23.116 duration so far: PT59.531S
States: 42
24: 2020-08-12T16:05:24.542 duration so far: PT1M0.957S
States: 43
25: 2020-08-12T16:05:27.299 duration so far: PT1M3.714S
States: 44
26: 2020-08-12T16:05:28.854 duration so far: PT1M5.269S
States: 45
27: 2020-08-12T16:05:33.303 duration so far: PT1M9.718S
States: 46
28: 2020-08-12T16:05:46.914 duration so far: PT1M23.329S
States: 47
29: 2020-08-12T16:05:49.912 duration so far: PT1M26.327S
States: 48
30: 2020-08-12T16:05:55.677 duration so far: PT1M32.092S
States: 50
31: 2020-08-12T16:06:02.290 duration so far: PT1M38.705S
States: 52
32: 2020-08-12T16:06:35.010 duration so far: PT2M11.425S
States: 53
33: 2020-08-12T16:07:46.048 duration so far: PT3M22.463S
States: 54
34: 2020-08-12T16:23:12.377 duration so far: PT18M48.792S
States: 55
slurmstepd: error: *** JOB 15914689 ON nihm017 CANCELLED AT 2020-08-13T05:04:33 DUE TO TIME LIMIT ***
