sed -n "${cur}p" < run_jobs.txt  0.00s user 0.00s system 83% cpu 0.002 total
Picked up JAVA_TOOL_OPTIONS: -Xmx2048m
Options: CommandLineOptions{path='/work/tl416220/rers2020-bin/Problem8', maxDepth=2, expectedLength=8, alphabetSize=15, testingBound=2000000, outputPath='/work/tl416220/rers2020-output/Problem8', help=false}
LOG> start: 2020-08-14T09:24:33.139, alphabet = 15
1: 2020-08-14T09:24:33.512 duration so far: PT0.373S
States: 1
2: 2020-08-14T09:24:33.620 duration so far: PT0.481S
States: 2
3: 2020-08-14T09:24:33.869 duration so far: PT0.73S
States: 5
4: 2020-08-14T09:24:34.325 duration so far: PT1.186S
States: 10
5: 2020-08-14T09:24:35.067 duration so far: PT1.928S
States: 15
6: 2020-08-14T09:24:35.637 duration so far: PT2.498S
States: 16
7: 2020-08-14T09:24:35.851 duration so far: PT2.712S
States: 17
8: 2020-08-14T09:24:36.259 duration so far: PT3.12S
States: 18
9: 2020-08-14T09:24:36.466 duration so far: PT3.327S
States: 19
10: 2020-08-14T09:24:36.888 duration so far: PT3.749S
States: 21
11: 2020-08-14T09:24:37.069 duration so far: PT3.93S
States: 22
12: 2020-08-14T09:24:39.594 duration so far: PT6.455S
States: 23
13: 2020-08-14T09:24:44.456 duration so far: PT11.317S
States: 24
14: 2020-08-14T09:24:45.714 duration so far: PT12.575S
States: 27
15: 2020-08-14T09:24:46.057 duration so far: PT12.918S
States: 28
16: 2020-08-14T09:24:46.525 duration so far: PT13.386S
States: 30
17: 2020-08-14T09:24:46.667 duration so far: PT13.528S
States: 31
18: 2020-08-14T09:25:04.902 duration so far: PT31.763S
States: 34
19: 2020-08-14T09:25:05.687 duration so far: PT32.548S
States: 36
20: 2020-08-14T09:25:05.821 duration so far: PT32.682S
States: 37
21: 2020-08-14T09:25:06.608 duration so far: PT33.469S
States: 39
22: 2020-08-14T09:25:26.857 duration so far: PT53.718S
States: 41
23: 2020-08-14T09:26:32.337 duration so far: PT1M59.198S
States: 42
Done with learning /work/tl416220/rers2020-bin/Problem8
