sed -n "${cur}p" < run_jobs.txt  0.00s user 0.00s system 82% cpu 0.002 total
Picked up JAVA_TOOL_OPTIONS: -Xmx2048m
Options: CommandLineOptions{path='/work/tl416220/rers2020-bin/Problem3', maxDepth=2, expectedLength=8, alphabetSize=10, testingBound=2000000, outputPath='/work/tl416220/rers2020-output/Problem3', help=false}
LOG> start: 2020-08-14T09:24:33.652, alphabet = 10
1: 2020-08-14T09:24:33.982 duration so far: PT0.33S
States: 1
2: 2020-08-14T09:24:34.381 duration so far: PT0.729S
States: 9
3: 2020-08-14T09:24:34.456 duration so far: PT0.804S
States: 10
4: 2020-08-14T09:24:35.071 duration so far: PT1.419S
States: 19
5: 2020-08-14T09:24:35.486 duration so far: PT1.834S
States: 26
6: 2020-08-14T09:24:35.560 duration so far: PT1.908S
States: 27
7: 2020-08-14T09:24:35.677 duration so far: PT2.025S
States: 28
8: 2020-08-14T09:24:35.798 duration so far: PT2.146S
States: 29
9: 2020-08-14T09:24:35.881 duration so far: PT2.229S
States: 30
10: 2020-08-14T09:24:36.074 duration so far: PT2.422S
States: 33
11: 2020-08-14T09:24:36.373 duration so far: PT2.721S
States: 37
12: 2020-08-14T09:24:36.555 duration so far: PT2.903S
States: 38
13: 2020-08-14T09:24:36.716 duration so far: PT3.064S
States: 40
14: 2020-08-14T09:24:36.817 duration so far: PT3.165S
States: 41
15: 2020-08-14T09:24:36.989 duration so far: PT3.337S
States: 43
16: 2020-08-14T09:24:37.088 duration so far: PT3.436S
States: 44
17: 2020-08-14T09:24:37.185 duration so far: PT3.533S
States: 45
18: 2020-08-14T09:24:37.324 duration so far: PT3.672S
States: 46
19: 2020-08-14T09:24:37.682 duration so far: PT4.03S
States: 49
20: 2020-08-14T09:24:38.006 duration so far: PT4.354S
States: 52
21: 2020-08-14T09:24:38.072 duration so far: PT4.42S
States: 53
22: 2020-08-14T09:24:38.147 duration so far: PT4.495S
States: 54
23: 2020-08-14T09:24:38.355 duration so far: PT4.703S
States: 56
24: 2020-08-14T09:24:38.517 duration so far: PT4.865S
States: 57
25: 2020-08-14T09:24:38.624 duration so far: PT4.972S
States: 58
26: 2020-08-14T09:24:38.737 duration so far: PT5.085S
States: 59
27: 2020-08-14T09:24:38.937 duration so far: PT5.285S
States: 61
28: 2020-08-14T09:24:39.140 duration so far: PT5.488S
States: 63
29: 2020-08-14T09:24:39.334 duration so far: PT5.682S
States: 64
30: 2020-08-14T09:24:39.625 duration so far: PT5.973S
States: 66
31: 2020-08-14T09:24:39.723 duration so far: PT6.071S
States: 67
32: 2020-08-14T09:24:39.923 duration so far: PT6.271S
States: 68
33: 2020-08-14T09:24:40 duration so far: PT6.348S
States: 69
34: 2020-08-14T09:24:40.112 duration so far: PT6.46S
States: 70
35: 2020-08-14T09:24:40.223 duration so far: PT6.571S
States: 71
36: 2020-08-14T09:24:40.337 duration so far: PT6.685S
States: 72
37: 2020-08-14T09:24:40.517 duration so far: PT6.865S
States: 74
38: 2020-08-14T09:24:40.856 duration so far: PT7.204S
States: 75
39: 2020-08-14T09:24:41.190 duration so far: PT7.538S
States: 76
40: 2020-08-14T09:24:41.593 duration so far: PT7.941S
States: 77
41: 2020-08-14T09:24:42.306 duration so far: PT8.654S
States: 78
42: 2020-08-14T09:24:42.549 duration so far: PT8.897S
States: 79
43: 2020-08-14T09:24:42.648 duration so far: PT8.996S
States: 80
44: 2020-08-14T09:24:43.114 duration so far: PT9.462S
States: 81
45: 2020-08-14T09:24:43.666 duration so far: PT10.014S
States: 82
46: 2020-08-14T09:24:43.858 duration so far: PT10.206S
States: 83
47: 2020-08-14T09:24:44.087 duration so far: PT10.435S
States: 84
48: 2020-08-14T09:24:44.226 duration so far: PT10.574S
States: 85
49: 2020-08-14T09:24:44.342 duration so far: PT10.69S
States: 86
50: 2020-08-14T09:24:44.816 duration so far: PT11.164S
States: 87
51: 2020-08-14T09:24:45.384 duration so far: PT11.732S
States: 88
52: 2020-08-14T09:24:45.765 duration so far: PT12.113S
States: 89
53: 2020-08-14T09:24:46.189 duration so far: PT12.537S
States: 90
54: 2020-08-14T09:24:46.400 duration so far: PT12.748S
States: 91
55: 2020-08-14T09:24:46.984 duration so far: PT13.332S
States: 92
56: 2020-08-14T09:24:47.635 duration so far: PT13.983S
States: 93
57: 2020-08-14T09:24:48.206 duration so far: PT14.554S
States: 94
58: 2020-08-14T09:24:48.521 duration so far: PT14.869S
States: 95
59: 2020-08-14T09:24:49.026 duration so far: PT15.374S
States: 96
60: 2020-08-14T09:24:49.266 duration so far: PT15.614S
States: 97
61: 2020-08-14T09:24:49.740 duration so far: PT16.088S
States: 98
62: 2020-08-14T09:24:50.528 duration so far: PT16.876S
States: 99
63: 2020-08-14T09:24:51.614 duration so far: PT17.962S
States: 100
64: 2020-08-14T09:24:56.233 duration so far: PT22.581S
States: 101
65: 2020-08-14T09:25:10.312 duration so far: PT36.66S
States: 102
66: 2020-08-14T09:25:25.601 duration so far: PT51.949S
States: 103
67: 2020-08-14T09:25:26.165 duration so far: PT52.513S
States: 104
68: 2020-08-14T09:25:43.140 duration so far: PT1M9.488S
States: 105
69: 2020-08-14T09:26:10.541 duration so far: PT1M36.889S
States: 106
70: 2020-08-14T09:30:17.855 duration so far: PT5M44.203S
States: 107
Done with learning /work/tl416220/rers2020-bin/Problem3
