sed -n "${cur}p" < run_jobs.txt  0.00s user 0.00s system 80% cpu 0.002 total
Picked up JAVA_TOOL_OPTIONS: -Xmx2048m
Options: CommandLineOptions{path='/work/tl416220/rers2020-bin/Problem19', maxDepth=2, expectedLength=8, alphabetSize=20, outputPath='/work/tl416220/rers2020-output/Problem19', help=false}
LOG> start: 2020-08-12T16:04:23.006, alphabet = 20
1: 2020-08-12T16:04:23.308 duration so far: PT0.302S
States: 1
2: 2020-08-12T16:04:23.717 duration so far: PT0.711S
States: 2
3: 2020-08-12T16:04:25.039 duration so far: PT2.033S
States: 4
4: 2020-08-12T16:04:38.693 duration so far: PT15.687S
States: 12
5: 2020-08-12T16:04:56.070 duration so far: PT33.064S
States: 20
6: 2020-08-12T16:05:01.792 duration so far: PT38.786S
States: 23
7: 2020-08-12T16:05:07.654 duration so far: PT44.648S
States: 25
8: 2020-08-12T16:05:13.546 duration so far: PT50.54S
States: 27
9: 2020-08-12T16:05:16.231 duration so far: PT53.225S
States: 28
10: 2020-08-12T16:05:25.230 duration so far: PT1M2.224S
States: 31
11: 2020-08-12T16:05:32.029 duration so far: PT1M9.023S
States: 33
12: 2020-08-12T16:05:39.732 duration so far: PT1M16.726S
States: 35
13: 2020-08-12T16:05:47.667 duration so far: PT1M24.661S
States: 38
14: 2020-08-12T16:06:02.558 duration so far: PT1M39.552S
States: 42
15: 2020-08-12T16:06:17.927 duration so far: PT1M54.921S
States: 46
16: 2020-08-12T16:06:26.778 duration so far: PT2M3.772S
States: 48
17: 2020-08-12T16:06:33.175 duration so far: PT2M10.169S
States: 50
18: 2020-08-12T16:06:44.757 duration so far: PT2M21.751S
States: 55
19: 2020-08-12T16:07:19.769 duration so far: PT2M56.763S
States: 66
20: 2020-08-12T16:07:22.686 duration so far: PT2M59.68S
States: 67
21: 2020-08-12T16:07:38.298 duration so far: PT3M15.292S
States: 70
22: 2020-08-12T16:07:47.966 duration so far: PT3M24.96S
States: 74
23: 2020-08-12T16:08:13.815 duration so far: PT3M50.809S
States: 80
24: 2020-08-12T16:08:31.839 duration so far: PT4M8.833S
States: 83
25: 2020-08-12T16:08:38.461 duration so far: PT4M15.455S
States: 85
26: 2020-08-12T16:08:51.082 duration so far: PT4M28.076S
States: 88
27: 2020-08-12T16:08:58.091 duration so far: PT4M35.085S
States: 90
28: 2020-08-12T16:09:01.837 duration so far: PT4M38.831S
States: 91
29: 2020-08-12T16:09:06.630 duration so far: PT4M43.624S
States: 93
30: 2020-08-12T16:09:33.880 duration so far: PT5M10.874S
States: 100
31: 2020-08-12T16:09:49.785 duration so far: PT5M26.779S
States: 105
32: 2020-08-12T16:09:53.788 duration so far: PT5M30.782S
States: 107
33: 2020-08-12T16:10:04.095 duration so far: PT5M41.089S
States: 110
34: 2020-08-12T16:10:30.771 duration so far: PT6M7.765S
States: 116
35: 2020-08-12T16:10:40.043 duration so far: PT6M17.037S
States: 120
36: 2020-08-12T16:10:51.825 duration so far: PT6M28.819S
States: 123
37: 2020-08-12T16:10:54.834 duration so far: PT6M31.828S
States: 124
38: 2020-08-12T16:11:00.675 duration so far: PT6M37.669S
States: 125
39: 2020-08-12T16:11:05.763 duration so far: PT6M42.757S
States: 127
40: 2020-08-12T16:11:25.183 duration so far: PT7M2.177S
States: 131
41: 2020-08-12T16:11:29.823 duration so far: PT7M6.817S
States: 132
42: 2020-08-12T16:11:44.493 duration so far: PT7M21.487S
States: 135
43: 2020-08-12T16:11:52.347 duration so far: PT7M29.341S
States: 137
44: 2020-08-12T16:12:00.451 duration so far: PT7M37.445S
States: 140
45: 2020-08-12T16:12:02.890 duration so far: PT7M39.884S
States: 141
46: 2020-08-12T16:12:34.233 duration so far: PT8M11.227S
States: 148
47: 2020-08-12T16:12:38.171 duration so far: PT8M15.165S
States: 149
48: 2020-08-12T16:12:43.315 duration so far: PT8M20.309S
States: 151
49: 2020-08-12T16:13:08.001 duration so far: PT8M44.995S
States: 156
50: 2020-08-12T16:13:11.684 duration so far: PT8M48.678S
States: 157
51: 2020-08-12T16:13:18.921 duration so far: PT8M55.915S
States: 159
52: 2020-08-12T16:13:27.056 duration so far: PT9M4.05S
States: 161
53: 2020-08-12T16:13:32.174 duration so far: PT9M9.168S
States: 162
54: 2020-08-12T16:13:36.876 duration so far: PT9M13.87S
States: 163
55: 2020-08-12T16:13:52.521 duration so far: PT9M29.515S
States: 166
56: 2020-08-12T16:13:59.541 duration so far: PT9M36.535S
States: 167
57: 2020-08-12T16:14:06.192 duration so far: PT9M43.186S
States: 169
58: 2020-08-12T16:14:35.222 duration so far: PT10M12.216S
States: 175
59: 2020-08-12T16:14:49.099 duration so far: PT10M26.093S
States: 178
60: 2020-08-12T16:15:19.666 duration so far: PT10M56.66S
States: 184
61: 2020-08-12T16:15:23.332 duration so far: PT11M0.326S
States: 185
62: 2020-08-12T16:15:42.468 duration so far: PT11M19.462S
States: 190
63: 2020-08-12T16:15:45.897 duration so far: PT11M22.891S
States: 191
64: 2020-08-12T16:15:53.580 duration so far: PT11M30.574S
States: 193
65: 2020-08-12T16:16:05.170 duration so far: PT11M42.164S
States: 195
66: 2020-08-12T16:16:15.536 duration so far: PT11M52.53S
States: 197
67: 2020-08-12T16:16:25.756 duration so far: PT12M2.75S
States: 200
68: 2020-08-12T16:16:44.606 duration so far: PT12M21.6S
States: 204
69: 2020-08-12T16:17:03.955 duration so far: PT12M40.949S
States: 207
70: 2020-08-12T16:17:07.874 duration so far: PT12M44.868S
States: 208
71: 2020-08-12T16:17:17.387 duration so far: PT12M54.381S
States: 211
72: 2020-08-12T16:17:20.146 duration so far: PT12M57.14S
States: 212
73: 2020-08-12T16:17:44.391 duration so far: PT13M21.385S
States: 215
74: 2020-08-12T16:18:11.168 duration so far: PT13M48.162S
States: 220
75: 2020-08-12T16:18:26.774 duration so far: PT14M3.768S
States: 222
76: 2020-08-12T16:18:35.281 duration so far: PT14M12.275S
States: 224
77: 2020-08-12T16:18:38.934 duration so far: PT14M15.928S
States: 225
78: 2020-08-12T16:18:54.473 duration so far: PT14M31.467S
States: 229
79: 2020-08-12T16:19:06.664 duration so far: PT14M43.658S
States: 231
80: 2020-08-12T16:19:09.274 duration so far: PT14M46.268S
States: 232
81: 2020-08-12T16:19:23.452 duration so far: PT15M0.446S
States: 235
82: 2020-08-12T16:19:31.444 duration so far: PT15M8.438S
States: 237
83: 2020-08-12T16:19:38.048 duration so far: PT15M15.042S
States: 238
84: 2020-08-12T16:19:50.486 duration so far: PT15M27.48S
States: 241
85: 2020-08-12T16:19:57.272 duration so far: PT15M34.266S
States: 242
86: 2020-08-12T16:20:02.537 duration so far: PT15M39.531S
States: 243
87: 2020-08-12T16:20:07.054 duration so far: PT15M44.048S
States: 244
88: 2020-08-12T16:20:11.390 duration so far: PT15M48.384S
States: 245
89: 2020-08-12T16:20:16.668 duration so far: PT15M53.662S
States: 246
90: 2020-08-12T16:20:24.945 duration so far: PT16M1.939S
States: 247
91: 2020-08-12T16:20:47.996 duration so far: PT16M24.99S
States: 252
92: 2020-08-12T16:21:00.903 duration so far: PT16M37.897S
States: 254
93: 2020-08-12T16:21:04.720 duration so far: PT16M41.714S
States: 255
94: 2020-08-12T16:21:18.019 duration so far: PT16M55.013S
States: 258
95: 2020-08-12T16:21:23.133 duration so far: PT17M0.127S
States: 259
96: 2020-08-12T16:21:27.073 duration so far: PT17M4.067S
States: 260
97: 2020-08-12T16:21:36.636 duration so far: PT17M13.63S
States: 262
98: 2020-08-12T16:21:52.026 duration so far: PT17M29.02S
States: 266
99: 2020-08-12T16:21:56.857 duration so far: PT17M33.851S
States: 267
100: 2020-08-12T16:21:59.944 duration so far: PT17M36.938S
States: 268
101: 2020-08-12T16:22:19.059 duration so far: PT17M56.053S
States: 271
102: 2020-08-12T16:22:25.447 duration so far: PT18M2.441S
States: 272
103: 2020-08-12T16:22:28.849 duration so far: PT18M5.843S
States: 273
104: 2020-08-12T16:22:32.787 duration so far: PT18M9.781S
States: 274
105: 2020-08-12T16:22:35.422 duration so far: PT18M12.416S
States: 275
106: 2020-08-12T16:22:38.475 duration so far: PT18M15.469S
States: 276
107: 2020-08-12T16:22:49.729 duration so far: PT18M26.723S
States: 278
108: 2020-08-12T16:22:52.929 duration so far: PT18M29.923S
States: 279
109: 2020-08-12T16:23:03.529 duration so far: PT18M40.523S
States: 281
110: 2020-08-12T16:23:07.487 duration so far: PT18M44.481S
States: 282
111: 2020-08-12T16:23:17.902 duration so far: PT18M54.896S
States: 285
112: 2020-08-12T16:23:22.156 duration so far: PT18M59.15S
States: 286
113: 2020-08-12T16:23:26.431 duration so far: PT19M3.425S
States: 287
114: 2020-08-12T16:23:30.678 duration so far: PT19M7.672S
States: 288
115: 2020-08-12T16:23:36.553 duration so far: PT19M13.547S
States: 289
116: 2020-08-12T16:23:43.056 duration so far: PT19M20.05S
States: 290
117: 2020-08-12T16:23:45.824 duration so far: PT19M22.818S
States: 291
118: 2020-08-12T16:23:54.576 duration so far: PT19M31.57S
States: 293
119: 2020-08-12T16:24:06.283 duration so far: PT19M43.277S
States: 295
120: 2020-08-12T16:24:11.089 duration so far: PT19M48.083S
States: 296
121: 2020-08-12T16:24:15.419 duration so far: PT19M52.413S
States: 297
122: 2020-08-12T16:24:36.807 duration so far: PT20M13.801S
States: 302
123: 2020-08-12T16:24:45.149 duration so far: PT20M22.143S
States: 304
124: 2020-08-12T16:25:48.969 duration so far: PT21M25.963S
States: 314
125: 2020-08-12T16:26:12.474 duration so far: PT21M49.468S
States: 317
126: 2020-08-12T16:26:16.171 duration so far: PT21M53.165S
States: 318
127: 2020-08-12T16:26:23.493 duration so far: PT22M0.487S
States: 319
128: 2020-08-12T16:26:28.494 duration so far: PT22M5.488S
States: 320
129: 2020-08-12T16:26:31.783 duration so far: PT22M8.777S
States: 321
130: 2020-08-12T16:26:49.681 duration so far: PT22M26.675S
States: 325
131: 2020-08-12T16:27:14.125 duration so far: PT22M51.119S
States: 329
132: 2020-08-12T16:27:18.776 duration so far: PT22M55.77S
States: 330
133: 2020-08-12T16:27:48.443 duration so far: PT23M25.437S
States: 335
134: 2020-08-12T16:27:55.823 duration so far: PT23M32.817S
States: 336
135: 2020-08-12T16:28:06.392 duration so far: PT23M43.386S
States: 338
136: 2020-08-12T16:28:10.804 duration so far: PT23M47.798S
States: 339
137: 2020-08-12T16:28:21.390 duration so far: PT23M58.384S
States: 341
138: 2020-08-12T16:28:47.170 duration so far: PT24M24.164S
States: 347
139: 2020-08-12T16:28:55.068 duration so far: PT24M32.062S
States: 348
140: 2020-08-12T16:29:06.288 duration so far: PT24M43.282S
States: 350
141: 2020-08-12T16:29:10.886 duration so far: PT24M47.88S
States: 351
142: 2020-08-12T16:29:26.319 duration so far: PT25M3.313S
States: 354
143: 2020-08-12T16:29:40.451 duration so far: PT25M17.445S
States: 357
144: 2020-08-12T16:29:47.978 duration so far: PT25M24.972S
States: 359
145: 2020-08-12T16:29:59.997 duration so far: PT25M36.991S
States: 361
146: 2020-08-12T16:30:04.075 duration so far: PT25M41.069S
States: 362
147: 2020-08-12T16:30:06.692 duration so far: PT25M43.686S
States: 363
148: 2020-08-12T16:30:43.389 duration so far: PT26M20.383S
States: 370
149: 2020-08-12T16:31:05.410 duration so far: PT26M42.404S
States: 374
150: 2020-08-12T16:31:12.363 duration so far: PT26M49.357S
States: 375
151: 2020-08-12T16:31:17.497 duration so far: PT26M54.491S
States: 376
152: 2020-08-12T16:31:24.643 duration so far: PT27M1.637S
States: 377
153: 2020-08-12T16:31:32.661 duration so far: PT27M9.655S
States: 379
154: 2020-08-12T16:31:38.516 duration so far: PT27M15.51S
States: 380
155: 2020-08-12T16:31:43.170 duration so far: PT27M20.164S
States: 381
156: 2020-08-12T16:31:48.224 duration so far: PT27M25.218S
States: 382
157: 2020-08-12T16:31:54.696 duration so far: PT27M31.69S
States: 384
158: 2020-08-12T16:32:02.694 duration so far: PT27M39.688S
States: 386
159: 2020-08-12T16:32:12.648 duration so far: PT27M49.642S
States: 388
160: 2020-08-12T16:32:17.964 duration so far: PT27M54.958S
States: 389
161: 2020-08-12T16:32:21.339 duration so far: PT27M58.333S
States: 390
162: 2020-08-12T16:32:25.314 duration so far: PT28M2.308S
States: 391
163: 2020-08-12T16:32:39.584 duration so far: PT28M16.578S
States: 394
164: 2020-08-12T16:32:43.006 duration so far: PT28M20S
States: 395
165: 2020-08-12T16:32:54.574 duration so far: PT28M31.568S
States: 397
166: 2020-08-12T16:32:59.979 duration so far: PT28M36.973S
States: 398
167: 2020-08-12T16:33:04.524 duration so far: PT28M41.518S
States: 399
168: 2020-08-12T16:33:12.448 duration so far: PT28M49.442S
States: 401
169: 2020-08-12T16:33:20.240 duration so far: PT28M57.234S
States: 402
170: 2020-08-12T16:33:33.954 duration so far: PT29M10.948S
States: 404
171: 2020-08-12T16:33:43.988 duration so far: PT29M20.982S
States: 406
172: 2020-08-12T16:33:48.462 duration so far: PT29M25.456S
States: 407
173: 2020-08-12T16:33:56.200 duration so far: PT29M33.194S
States: 408
174: 2020-08-12T16:34:00.923 duration so far: PT29M37.917S
States: 409
175: 2020-08-12T16:34:18.102 duration so far: PT29M55.096S
States: 412
176: 2020-08-12T16:34:37.248 duration so far: PT30M14.242S
States: 416
177: 2020-08-12T16:34:45.097 duration so far: PT30M22.091S
States: 418
178: 2020-08-12T16:34:49.347 duration so far: PT30M26.341S
States: 419
179: 2020-08-12T16:34:59.497 duration so far: PT30M36.491S
States: 421
180: 2020-08-12T16:35:14.505 duration so far: PT30M51.499S
States: 424
181: 2020-08-12T16:35:23.988 duration so far: PT31M0.982S
States: 426
182: 2020-08-12T16:35:32.217 duration so far: PT31M9.211S
States: 427
183: 2020-08-12T16:35:38.861 duration so far: PT31M15.855S
States: 428
184: 2020-08-12T16:36:02.345 duration so far: PT31M39.339S
States: 432
185: 2020-08-12T16:36:14.785 duration so far: PT31M51.779S
States: 434
186: 2020-08-12T16:36:19.986 duration so far: PT31M56.98S
States: 435
187: 2020-08-12T16:36:27.281 duration so far: PT32M4.275S
States: 436
188: 2020-08-12T16:36:34.581 duration so far: PT32M11.575S
States: 437
189: 2020-08-12T16:36:56.683 duration so far: PT32M33.677S
States: 441
190: 2020-08-12T16:37:02.312 duration so far: PT32M39.306S
States: 442
191: 2020-08-12T16:37:07.483 duration so far: PT32M44.477S
States: 443
192: 2020-08-12T16:37:14.396 duration so far: PT32M51.39S
States: 444
193: 2020-08-12T16:37:25.930 duration so far: PT33M2.924S
States: 446
194: 2020-08-12T16:37:32.822 duration so far: PT33M9.816S
States: 448
195: 2020-08-12T16:37:39.088 duration so far: PT33M16.082S
States: 450
196: 2020-08-12T16:37:46.015 duration so far: PT33M23.009S
States: 451
197: 2020-08-12T16:37:54.155 duration so far: PT33M31.149S
States: 452
198: 2020-08-12T16:37:58.374 duration so far: PT33M35.368S
States: 453
199: 2020-08-12T16:38:02.761 duration so far: PT33M39.755S
States: 454
200: 2020-08-12T16:38:07.352 duration so far: PT33M44.346S
States: 455
201: 2020-08-12T16:38:36.354 duration so far: PT34M13.348S
States: 458
202: 2020-08-12T16:38:42.110 duration so far: PT34M19.104S
States: 459
203: 2020-08-12T16:38:59.318 duration so far: PT34M36.312S
States: 462
204: 2020-08-12T16:39:11.239 duration so far: PT34M48.233S
States: 464
205: 2020-08-12T16:39:17.679 duration so far: PT34M54.673S
States: 465
206: 2020-08-12T16:39:27.522 duration so far: PT35M4.516S
States: 467
207: 2020-08-12T16:39:30.797 duration so far: PT35M7.791S
States: 468
208: 2020-08-12T16:39:42.553 duration so far: PT35M19.547S
States: 470
209: 2020-08-12T16:39:47.753 duration so far: PT35M24.747S
States: 471
210: 2020-08-12T16:40:01.774 duration so far: PT35M38.768S
States: 474
211: 2020-08-12T16:40:06.077 duration so far: PT35M43.071S
States: 475
212: 2020-08-12T16:40:11.303 duration so far: PT35M48.297S
States: 476
213: 2020-08-12T16:40:25.694 duration so far: PT36M2.688S
States: 479
214: 2020-08-12T16:40:48.830 duration so far: PT36M25.824S
States: 484
215: 2020-08-12T16:41:03.131 duration so far: PT36M40.125S
States: 486
216: 2020-08-12T16:41:10.412 duration so far: PT36M47.406S
States: 487
217: 2020-08-12T16:41:16.106 duration so far: PT36M53.1S
States: 488
218: 2020-08-12T16:41:26.764 duration so far: PT37M3.758S
States: 490
219: 2020-08-12T16:41:40.014 duration so far: PT37M17.008S
States: 492
220: 2020-08-12T16:41:45.237 duration so far: PT37M22.231S
States: 493
221: 2020-08-12T16:41:53.550 duration so far: PT37M30.544S
States: 494
222: 2020-08-12T16:42:14.258 duration so far: PT37M51.252S
States: 498
223: 2020-08-12T16:42:23.105 duration so far: PT38M0.099S
States: 500
224: 2020-08-12T16:42:37.056 duration so far: PT38M14.05S
States: 503
225: 2020-08-12T16:42:51.703 duration so far: PT38M28.697S
States: 505
226: 2020-08-12T16:42:56.644 duration so far: PT38M33.638S
States: 506
227: 2020-08-12T16:43:11.170 duration so far: PT38M48.164S
States: 508
228: 2020-08-12T16:43:16.822 duration so far: PT38M53.816S
States: 509
229: 2020-08-12T16:43:32.708 duration so far: PT39M9.702S
States: 512
230: 2020-08-12T16:43:46.024 duration so far: PT39M23.018S
States: 514
231: 2020-08-12T16:44:04.989 duration so far: PT39M41.983S
States: 517
232: 2020-08-12T16:44:22.712 duration so far: PT39M59.706S
States: 520
233: 2020-08-12T16:44:33.073 duration so far: PT40M10.067S
States: 521
234: 2020-08-12T16:44:53.424 duration so far: PT40M30.418S
States: 524
235: 2020-08-12T16:45:04.578 duration so far: PT40M41.572S
States: 526
236: 2020-08-12T16:45:10.194 duration so far: PT40M47.188S
States: 527
237: 2020-08-12T16:45:23.917 duration so far: PT41M0.911S
States: 529
238: 2020-08-12T16:45:52.274 duration so far: PT41M29.268S
States: 534
239: 2020-08-12T16:45:57.762 duration so far: PT41M34.756S
States: 535
240: 2020-08-12T16:46:06.034 duration so far: PT41M43.028S
States: 536
241: 2020-08-12T16:46:14.218 duration so far: PT41M51.212S
States: 537
242: 2020-08-12T16:46:21.451 duration so far: PT41M58.445S
States: 538
243: 2020-08-12T16:46:40.570 duration so far: PT42M17.564S
States: 541
244: 2020-08-12T16:46:46.334 duration so far: PT42M23.328S
States: 542
245: 2020-08-12T16:46:55.404 duration so far: PT42M32.398S
States: 543
246: 2020-08-12T16:47:04.420 duration so far: PT42M41.414S
States: 544
247: 2020-08-12T16:47:09.605 duration so far: PT42M46.599S
States: 545
248: 2020-08-12T16:47:14.525 duration so far: PT42M51.519S
States: 546
249: 2020-08-12T16:47:20.831 duration so far: PT42M57.825S
States: 547
250: 2020-08-12T16:47:26.051 duration so far: PT43M3.045S
States: 548
251: 2020-08-12T16:47:33.829 duration so far: PT43M10.823S
States: 550
252: 2020-08-12T16:47:41.439 duration so far: PT43M18.433S
States: 551
253: 2020-08-12T16:47:47.059 duration so far: PT43M24.053S
States: 552
254: 2020-08-12T16:47:51.599 duration so far: PT43M28.593S
States: 553
255: 2020-08-12T16:47:58.643 duration so far: PT43M35.637S
States: 554
256: 2020-08-12T16:48:11.027 duration so far: PT43M48.021S
States: 556
257: 2020-08-12T16:48:16.580 duration so far: PT43M53.574S
States: 557
258: 2020-08-12T16:48:21.308 duration so far: PT43M58.302S
States: 558
259: 2020-08-12T16:48:33.228 duration so far: PT44M10.222S
States: 560
260: 2020-08-12T16:48:38.845 duration so far: PT44M15.839S
States: 561
261: 2020-08-12T16:48:44.135 duration so far: PT44M21.129S
States: 562
262: 2020-08-12T16:48:49.470 duration so far: PT44M26.464S
States: 563
263: 2020-08-12T16:48:55.847 duration so far: PT44M32.841S
States: 564
264: 2020-08-12T16:49:04.541 duration so far: PT44M41.535S
States: 565
265: 2020-08-12T16:49:08.012 duration so far: PT44M45.006S
States: 566
266: 2020-08-12T16:49:13.587 duration so far: PT44M50.581S
States: 567
267: 2020-08-12T16:49:20.259 duration so far: PT44M57.253S
States: 568
268: 2020-08-12T16:49:27.676 duration so far: PT45M4.67S
States: 569
269: 2020-08-12T16:49:34.525 duration so far: PT45M11.519S
States: 570
270: 2020-08-12T16:49:39.229 duration so far: PT45M16.223S
States: 571
271: 2020-08-12T16:49:50.861 duration so far: PT45M27.855S
States: 573
272: 2020-08-12T16:49:59.031 duration so far: PT45M36.025S
States: 574
273: 2020-08-12T16:50:06.786 duration so far: PT45M43.78S
States: 575
274: 2020-08-12T16:50:13.122 duration so far: PT45M50.116S
States: 576
275: 2020-08-12T16:50:18.912 duration so far: PT45M55.906S
States: 577
276: 2020-08-12T16:50:26.559 duration so far: PT46M3.553S
States: 578
277: 2020-08-12T16:50:33.759 duration so far: PT46M10.753S
States: 579
278: 2020-08-12T16:50:41.339 duration so far: PT46M18.333S
States: 580
279: 2020-08-12T16:50:49.632 duration so far: PT46M26.626S
States: 581
280: 2020-08-12T16:50:56.971 duration so far: PT46M33.965S
States: 582
281: 2020-08-12T16:51:01.451 duration so far: PT46M38.445S
States: 583
282: 2020-08-12T16:51:18.537 duration so far: PT46M55.531S
States: 585
283: 2020-08-12T16:51:27.332 duration so far: PT47M4.326S
States: 586
284: 2020-08-12T16:51:45.039 duration so far: PT47M22.033S
States: 589
285: 2020-08-12T16:51:51.674 duration so far: PT47M28.668S
States: 590
286: 2020-08-12T16:52:01.569 duration so far: PT47M38.563S
States: 591
287: 2020-08-12T16:52:05.928 duration so far: PT47M42.922S
States: 592
288: 2020-08-12T16:52:11.407 duration so far: PT47M48.401S
States: 593
289: 2020-08-12T16:52:17.425 duration so far: PT47M54.419S
States: 594
290: 2020-08-12T16:52:19.786 duration so far: PT47M56.78S
States: 595
291: 2020-08-12T16:52:37.062 duration so far: PT48M14.056S
States: 597
292: 2020-08-12T16:52:46.728 duration so far: PT48M23.722S
States: 598
293: 2020-08-12T16:52:55.859 duration so far: PT48M32.853S
States: 599
294: 2020-08-12T16:53:01.294 duration so far: PT48M38.288S
States: 600
295: 2020-08-12T16:53:17.780 duration so far: PT48M54.774S
States: 603
296: 2020-08-12T16:53:26.875 duration so far: PT49M3.869S
States: 604
297: 2020-08-12T16:53:34.238 duration so far: PT49M11.232S
States: 605
298: 2020-08-12T16:53:44.004 duration so far: PT49M20.998S
States: 606
299: 2020-08-12T16:54:00.531 duration so far: PT49M37.525S
States: 608
300: 2020-08-12T16:54:10.041 duration so far: PT49M47.035S
States: 609
301: 2020-08-12T16:54:16.561 duration so far: PT49M53.555S
States: 610
302: 2020-08-12T16:54:21.649 duration so far: PT49M58.643S
States: 611
303: 2020-08-12T16:54:29.146 duration so far: PT50M6.14S
States: 612
304: 2020-08-12T16:54:42.527 duration so far: PT50M19.521S
States: 614
305: 2020-08-12T16:54:52.502 duration so far: PT50M29.496S
States: 615
306: 2020-08-12T16:55:00.915 duration so far: PT50M37.909S
States: 616
307: 2020-08-12T16:55:19.444 duration so far: PT50M56.438S
States: 618
308: 2020-08-12T16:55:27.821 duration so far: PT51M4.815S
States: 619
309: 2020-08-12T16:55:38.394 duration so far: PT51M15.388S
States: 620
310: 2020-08-12T16:55:42.911 duration so far: PT51M19.905S
States: 621
311: 2020-08-12T16:55:51.318 duration so far: PT51M28.312S
States: 622
312: 2020-08-12T16:55:57.160 duration so far: PT51M34.154S
States: 623
313: 2020-08-12T16:56:02.692 duration so far: PT51M39.686S
States: 624
314: 2020-08-12T16:56:13.504 duration so far: PT51M50.498S
States: 625
315: 2020-08-12T16:56:32.689 duration so far: PT52M9.683S
States: 627
316: 2020-08-12T16:56:41.375 duration so far: PT52M18.369S
States: 628
317: 2020-08-12T16:56:47.813 duration so far: PT52M24.807S
States: 629
318: 2020-08-12T16:57:01.005 duration so far: PT52M37.999S
States: 630
319: 2020-08-12T16:57:08.672 duration so far: PT52M45.666S
States: 631
320: 2020-08-12T16:57:17.983 duration so far: PT52M54.977S
States: 632
321: 2020-08-12T16:57:25.428 duration so far: PT53M2.422S
States: 633
322: 2020-08-12T16:57:45.846 duration so far: PT53M22.84S
States: 634
323: 2020-08-12T16:57:49.538 duration so far: PT53M26.532S
States: 635
324: 2020-08-12T16:57:55.156 duration so far: PT53M32.15S
States: 636
325: 2020-08-12T16:58:05.131 duration so far: PT53M42.125S
States: 637
326: 2020-08-12T16:58:13.958 duration so far: PT53M50.952S
States: 638
327: 2020-08-12T16:58:20.603 duration so far: PT53M57.597S
States: 639
328: 2020-08-12T16:58:28.071 duration so far: PT54M5.065S
States: 640
329: 2020-08-12T16:58:51.827 duration so far: PT54M28.821S
States: 644
330: 2020-08-12T16:59:00.228 duration so far: PT54M37.222S
States: 645
331: 2020-08-12T16:59:11.958 duration so far: PT54M48.952S
States: 646
332: 2020-08-12T16:59:29.840 duration so far: PT55M6.834S
States: 648
333: 2020-08-12T16:59:38.186 duration so far: PT55M15.18S
States: 649
334: 2020-08-12T16:59:45.529 duration so far: PT55M22.523S
States: 650
335: 2020-08-12T16:59:58.026 duration so far: PT55M35.02S
States: 652
336: 2020-08-12T17:00:08.185 duration so far: PT55M45.179S
States: 653
337: 2020-08-12T17:00:14.441 duration so far: PT55M51.435S
States: 654
338: 2020-08-12T17:00:21.877 duration so far: PT55M58.871S
States: 655
339: 2020-08-12T17:00:25.628 duration so far: PT56M2.622S
States: 656
340: 2020-08-12T17:00:33.122 duration so far: PT56M10.116S
States: 657
341: 2020-08-12T17:00:42.565 duration so far: PT56M19.559S
States: 658
342: 2020-08-12T17:00:50.006 duration so far: PT56M27S
States: 659
343: 2020-08-12T17:00:57.808 duration so far: PT56M34.802S
States: 660
344: 2020-08-12T17:01:05.241 duration so far: PT56M42.235S
States: 661
345: 2020-08-12T17:01:12.316 duration so far: PT56M49.31S
States: 662
346: 2020-08-12T17:01:22.514 duration so far: PT56M59.508S
States: 663
347: 2020-08-12T17:01:32.102 duration so far: PT57M9.096S
States: 664
348: 2020-08-12T17:01:55.298 duration so far: PT57M32.292S
States: 666
349: 2020-08-12T17:02:03.504 duration so far: PT57M40.498S
States: 667
350: 2020-08-12T17:02:22.857 duration so far: PT57M59.851S
States: 669
351: 2020-08-12T17:02:29.763 duration so far: PT58M6.757S
States: 670
352: 2020-08-12T17:02:40.205 duration so far: PT58M17.199S
States: 671
353: 2020-08-12T17:02:50.665 duration so far: PT58M27.659S
States: 672
354: 2020-08-12T17:03:00.891 duration so far: PT58M37.885S
States: 673
355: 2020-08-12T17:03:10.475 duration so far: PT58M47.469S
States: 674
356: 2020-08-12T17:03:18.679 duration so far: PT58M55.673S
States: 675
357: 2020-08-12T17:03:35.219 duration so far: PT59M12.213S
States: 676
358: 2020-08-12T17:03:46.395 duration so far: PT59M23.389S
States: 677
359: 2020-08-12T17:03:57.829 duration so far: PT59M34.823S
States: 678
360: 2020-08-12T17:04:05.131 duration so far: PT59M42.125S
States: 679
361: 2020-08-12T17:04:22.796 duration so far: PT59M59.79S
States: 680
362: 2020-08-12T17:04:29.048 duration so far: PT1H6.042S
States: 681
363: 2020-08-12T17:04:46.422 duration so far: PT1H23.416S
States: 682
364: 2020-08-12T17:05:04.446 duration so far: PT1H41.44S
States: 683
365: 2020-08-12T17:05:19.655 duration so far: PT1H56.649S
States: 684
366: 2020-08-12T17:05:28.352 duration so far: PT1H1M5.346S
States: 685
367: 2020-08-12T17:05:35.388 duration so far: PT1H1M12.382S
States: 686
368: 2020-08-12T17:06:12.618 duration so far: PT1H1M49.612S
States: 687
369: 2020-08-12T17:06:29.762 duration so far: PT1H2M6.756S
States: 689
370: 2020-08-12T17:06:39.376 duration so far: PT1H2M16.37S
States: 690
371: 2020-08-12T17:06:47.034 duration so far: PT1H2M24.028S
States: 691
372: 2020-08-12T17:07:01.126 duration so far: PT1H2M38.12S
States: 693
373: 2020-08-12T17:07:19.321 duration so far: PT1H2M56.315S
States: 694
374: 2020-08-12T17:07:32.268 duration so far: PT1H3M9.262S
States: 695
375: 2020-08-12T17:07:42.454 duration so far: PT1H3M19.448S
States: 696
376: 2020-08-12T17:07:53.123 duration so far: PT1H3M30.117S
States: 697
377: 2020-08-12T17:08:36.508 duration so far: PT1H4M13.502S
States: 698
378: 2020-08-12T17:09:09.207 duration so far: PT1H4M46.201S
States: 700
379: 2020-08-12T17:09:29.278 duration so far: PT1H5M6.272S
States: 701
380: 2020-08-12T17:09:42.126 duration so far: PT1H5M19.12S
States: 702
381: 2020-08-12T17:11:30.333 duration so far: PT1H7M7.327S
States: 704
382: 2020-08-12T17:11:59.235 duration so far: PT1H7M36.229S
States: 705
383: 2020-08-12T17:12:57.776 duration so far: PT1H8M34.77S
States: 706
384: 2020-08-12T17:13:38.648 duration so far: PT1H9M15.642S
States: 707
385: 2020-08-12T17:14:09.598 duration so far: PT1H9M46.592S
States: 709
386: 2020-08-12T17:15:28.895 duration so far: PT1H11M5.889S
States: 710
387: 2020-08-12T17:15:52.267 duration so far: PT1H11M29.261S
States: 711
388: 2020-08-12T17:16:14.092 duration so far: PT1H11M51.086S
States: 712
389: 2020-08-12T17:17:10.578 duration so far: PT1H12M47.572S
States: 713
390: 2020-08-12T17:17:48.776 duration so far: PT1H13M25.77S
States: 714
391: 2020-08-12T17:18:46.222 duration so far: PT1H14M23.216S
States: 716
392: 2020-08-12T17:18:52.503 duration so far: PT1H14M29.497S
States: 717
393: 2020-08-12T17:23:04.503 duration so far: PT1H18M41.497S
States: 718
394: 2020-08-12T17:23:17.644 duration so far: PT1H18M54.638S
States: 719
395: 2020-08-12T17:27:43.041 duration so far: PT1H23M20.035S
States: 721
396: 2020-08-12T17:42:01.927 duration so far: PT1H37M38.921S
States: 722
397: 2020-08-12T22:01:01.360 duration so far: PT5H56M38.354S
States: 726
398: 2020-08-12T22:05:28.398 duration so far: PT6H1M5.392S
States: 727
399: 2020-08-12T23:20:15.956 duration so far: PT7H15M52.95S
States: 728
400: 2020-08-13T00:05:36.273 duration so far: PT8H1M13.267S
States: 731
401: 2020-08-13T00:09:09.067 duration so far: PT8H4M46.061S
States: 733
402: 2020-08-13T00:17:09.950 duration so far: PT8H12M46.944S
States: 735
403: 2020-08-13T00:24:05.948 duration so far: PT8H19M42.942S
States: 737
404: 2020-08-13T00:26:34.851 duration so far: PT8H22M11.845S
States: 738
405: 2020-08-13T00:46:08.966 duration so far: PT8H41M45.96S
States: 740
406: 2020-08-13T00:46:25.445 duration so far: PT8H42M2.439S
States: 741
407: 2020-08-13T00:49:27.139 duration so far: PT8H45M4.133S
States: 742
408: 2020-08-13T00:52:34.784 duration so far: PT8H48M11.778S
States: 743
409: 2020-08-13T00:54:38.343 duration so far: PT8H50M15.337S
States: 750
410: 2020-08-13T00:55:30.835 duration so far: PT8H51M7.829S
States: 751
411: 2020-08-13T00:58:20.885 duration so far: PT8H53M57.879S
States: 753
412: 2020-08-13T00:59:40.359 duration so far: PT8H55M17.353S
States: 754
413: 2020-08-13T01:05:41.540 duration so far: PT9H1M18.534S
States: 755
414: 2020-08-13T01:10:12.494 duration so far: PT9H5M49.488S
States: 756
415: 2020-08-13T01:15:16.335 duration so far: PT9H10M53.329S
States: 759
416: 2020-08-13T01:25:29.675 duration so far: PT9H21M6.669S
States: 760
417: 2020-08-13T01:31:33.849 duration so far: PT9H27M10.843S
States: 761
418: 2020-08-13T01:35:58.300 duration so far: PT9H31M35.294S
States: 763
419: 2020-08-13T01:58:12.236 duration so far: PT9H53M49.23S
States: 766
420: 2020-08-13T02:00:48.569 duration so far: PT9H56M25.563S
States: 768
421: 2020-08-13T02:12:35.242 duration so far: PT10H8M12.236S
States: 769
422: 2020-08-13T02:42:11.335 duration so far: PT10H37M48.329S
States: 770
423: 2020-08-13T02:51:42.747 duration so far: PT10H47M19.741S
States: 773
424: 2020-08-13T02:54:53.165 duration so far: PT10H50M30.159S
States: 777
425: 2020-08-13T02:57:12.618 duration so far: PT10H52M49.612S
States: 780
426: 2020-08-13T03:00:57.193 duration so far: PT10H56M34.187S
States: 781
427: 2020-08-13T03:03:32.445 duration so far: PT10H59M9.439S
States: 782
428: 2020-08-13T03:12:46.971 duration so far: PT11H8M23.965S
States: 783
429: 2020-08-13T03:19:45.343 duration so far: PT11H15M22.337S
States: 785
430: 2020-08-13T03:26:41.430 duration so far: PT11H22M18.424S
States: 786
431: 2020-08-13T03:30:49.387 duration so far: PT11H26M26.381S
States: 788
432: 2020-08-13T03:33:26.226 duration so far: PT11H29M3.22S
States: 790
433: 2020-08-13T03:34:52.053 duration so far: PT11H30M29.047S
States: 791
434: 2020-08-13T03:35:37.264 duration so far: PT11H31M14.258S
States: 792
435: 2020-08-13T03:43:47.699 duration so far: PT11H39M24.693S
States: 793
436: 2020-08-13T03:52:25.816 duration so far: PT11H48M2.81S
States: 795
437: 2020-08-13T03:53:59.058 duration so far: PT11H49M36.052S
States: 797
438: 2020-08-13T03:59:32.068 duration so far: PT11H55M9.062S
States: 798
slurmstepd: error: *** JOB 15914684 ON nihm018 CANCELLED AT 2020-08-13T05:04:33 DUE TO TIME LIMIT ***
