sed -n "${cur}p" < run_jobs.txt  0.00s user 0.00s system 84% cpu 0.002 total
Picked up JAVA_TOOL_OPTIONS: -Xmx2048m
Options: CommandLineOptions{path='/work/tl416220/rers2020-bin/Problem11', maxDepth=2, expectedLength=8, alphabetSize=10, outputPath='/work/tl416220/rers2020-output/Problem11', help=false}
LOG> start: 2020-08-12T16:04:24.730, alphabet = 10
1: 2020-08-12T16:04:24.981 duration so far: PT0.251S
States: 1
2: 2020-08-12T16:04:25.810 duration so far: PT1.08S
States: 4
3: 2020-08-12T16:04:26.491 duration so far: PT1.761S
States: 6
4: 2020-08-12T16:04:30.310 duration so far: PT5.58S
States: 14
5: 2020-08-12T16:04:33.327 duration so far: PT8.597S
States: 18
6: 2020-08-12T16:04:34.067 duration so far: PT9.337S
States: 19
7: 2020-08-12T16:04:36.666 duration so far: PT11.936S
States: 20
slurmstepd: error: *** JOB 15914697 ON nihm017 CANCELLED AT 2020-08-13T05:04:33 DUE TO TIME LIMIT ***
